EESchema Schematic File Version 2
LIBS:Xilinx
LIBS:Vishay
LIBS:TexasInstruments
LIBS:symbol
LIBS:supertex
LIBS:st_ic
LIBS:ST
LIBS:skyworks
LIBS:silabs
LIBS:semi-trans-Vishay
LIBS:semi-trans-Toshiba
LIBS:semi-trans-TIP
LIBS:semi-trans-TI
LIBS:semi-trans-ST
LIBS:semi-trans-PZT
LIBS:semi-trans-OnSemi
LIBS:semi-trans-NXP
LIBS:semi-trans-MPS
LIBS:semi-trans-MMB
LIBS:semi-trans-misc
LIBS:semi-trans-IXYS
LIBS:semi-trans-IntRect
LIBS:semi-trans-Infineon
LIBS:semi-trans-Fairchild
LIBS:semi-trans-EPC
LIBS:semi-trans-DiodesInc
LIBS:semi-trans-BC
LIBS:semi-trans-AOS
LIBS:semi-trans-2N
LIBS:semi-thyristor-2N
LIBS:semi-opto-misc
LIBS:semi-diode-Vishay
LIBS:semi-diode-ST
LIBS:semi-diode-OnSemi
LIBS:semi-diode-NXP
LIBS:semi-diode-Murata
LIBS:semi-diode-MMB
LIBS:semi-diode-MCC
LIBS:semi-diode-DiodesInc
LIBS:semi-diode-BA
LIBS:semi-diode-1N
LIBS:_semi
LIBS:Recom
LIBS:power
LIBS:pcb
LIBS:pasv-xtal
LIBS:pasv-res
LIBS:pasv-ind
LIBS:pasv-cap
LIBS:pasv-Bourns
LIBS:pasv-BiTech
LIBS:passive
LIBS:onsemi
LIBS:NXP
LIBS:Micron
LIBS:Microchip
LIBS:mechanical
LIBS:maxim
LIBS:MACOM
LIBS:logic-7400
LIBS:logic-4000
LIBS:Littelfuse
LIBS:LinearTech
LIBS:_linear
LIBS:Lattice
LIBS:Intersil
LIBS:FTDI
LIBS:Fairchild
LIBS:_electromech
LIBS:display
LIBS:DiodesInc
LIBS:conn-test
LIBS:conn-te
LIBS:conn-tagconnect
LIBS:conn-molex
LIBS:conn-linx
LIBS:conn-fci
LIBS:conn-cui
LIBS:conn-100mil
LIBS:conn-2mm
LIBS:Atmel
LIBS:AnalogDevices
LIBS:Altera
LIBS:AOS
LIBS:mod12003-cache
EELAYER 25 0
EELAYER END
$Descr USLetter 11000 8500
encoding utf-8
Sheet 3 6
Title "20V, 3A hybrid power supply module"
Date "2015-11-17"
Rev "preB"
Comp "SEMIANALOG"
Comment1 "MOD12003"
Comment2 ""
Comment3 "CC0: https://creativecommons.org/publicdomain/zero/1.0/"
Comment4 "Source: https://github.com/semianalog/mod12003"
$EndDescr
$Comp
L D45H11 Q10
U 1 1 55C7FFFD
P 7100 1150
F 0 "Q10" V 7316 1150 50  0000 C CNN
F 1 "D45H11" V 7216 1150 50  0000 C CNN
F 2 "pth-semi:TO-220" H 7100 1150 50  0001 C CNN
F 3 "" H 7100 1150 60  0000 C CNN
F 4 "PNP ONSEMI D45H11" H 7900 1700 60  0001 C CNN "BOM"
	1    7100 1150
	0    -1   -1   0   
$EndComp
Text Notes 6850 850  0    50   ~ 0
On heatsink
Text HLabel 1100 4700 0    50   Input ~ 0
VSET
Text HLabel 1100 6200 0    50   Input ~ 0
ISET
Text HLabel 1100 4200 0    50   Input ~ 0
VSENSE+
Text HLabel 1100 2700 0    50   Input ~ 0
VSENSE-
Text HLabel 9850 3000 2    50   Output ~ 0
VSENSE_OUT
Text HLabel 9850 5300 2    50   Output ~ 0
ISENSE_OUT
Text HLabel 1100 5200 0    50   Input ~ 0
ISENSE
$Comp
L LM393M U3
U 1 1 55C84E5E
P 7850 4600
F 0 "U3" H 7900 4955 50  0000 C CNN
F 1 "LM393M" H 7900 4855 50  0000 C CNN
F 2 "IPC7351-Nominal:SOIC127P600X175-8" H 7850 4350 50  0001 C CNN
F 3 "" V 7850 4750 60  0000 C CNN
F 4 "IC TI LM393M" H 7850 4250 60  0001 C CNN "BOM"
	1    7850 4600
	1    0    0    -1  
$EndComp
$Comp
L LM393M U3
U 2 1 55C85061
P 7850 6300
F 0 "U3" H 7900 6655 50  0000 C CNN
F 1 "LM393M" H 7900 6555 50  0000 C CNN
F 2 "IPC7351-Nominal:SOIC127P600X175-8" H 7850 6050 50  0001 C CNN
F 3 "" V 7850 6450 60  0000 C CNN
F 4 "IC TI LM393M" H 7850 5950 60  0001 C CNN "BOM"
	2    7850 6300
	1    0    0    -1  
$EndComp
$Comp
L +3.3 #PWR019
U 1 1 55C855A1
P 8350 4150
F 0 "#PWR019" H 8350 4200 30  0001 C CNN
F 1 "+3.3" H 8350 4263 50  0000 C CNN
F 2 "" H 8350 4150 60  0000 C CNN
F 3 "" H 8350 4150 60  0000 C CNN
	1    8350 4150
	1    0    0    -1  
$EndComp
$Comp
L +3.3 #PWR020
U 1 1 55C856A7
P 8350 5800
F 0 "#PWR020" H 8350 5850 30  0001 C CNN
F 1 "+3.3" H 8350 5913 50  0000 C CNN
F 2 "" H 8350 5800 60  0000 C CNN
F 3 "" H 8350 5800 60  0000 C CNN
	1    8350 5800
	1    0    0    -1  
$EndComp
$Comp
L GND #PWR021
U 1 1 55C85A88
P 8350 4950
F 0 "#PWR021" H 8350 4950 30  0001 C CNN
F 1 "GND" H 8350 4880 30  0001 C CNN
F 2 "" H 8350 4950 60  0000 C CNN
F 3 "" H 8350 4950 60  0000 C CNN
	1    8350 4950
	1    0    0    -1  
$EndComp
$Comp
L GND #PWR022
U 1 1 55C85C9E
P 8350 6650
F 0 "#PWR022" H 8350 6650 30  0001 C CNN
F 1 "GND" H 8350 6580 30  0001 C CNN
F 2 "" H 8350 6650 60  0000 C CNN
F 3 "" H 8350 6650 60  0000 C CNN
	1    8350 6650
	1    0    0    -1  
$EndComp
Text HLabel 9850 4500 2    50   Output ~ 0
~VLIM
Text HLabel 9850 6200 2    50   Output ~ 0
~ILIM
Text HLabel 1100 1100 0    50   Input ~ 0
P_IN
Text HLabel 9850 1100 2    50   Output ~ 0
P_OUT
$Comp
L V- #PWR023
U 1 1 55C91EA7
P 900 7700
F 0 "#PWR023" H 900 7650 30  0001 C CNN
F 1 "V-" H 900 7587 50  0000 C CNN
F 2 "" H 900 7700 60  0000 C CNN
F 3 "" H 900 7700 60  0000 C CNN
	1    900  7700
	1    0    0    -1  
$EndComp
$Comp
L V+ #PWR024
U 1 1 55C921EA
P 1800 6900
F 0 "#PWR024" H 1800 6950 30  0001 C CNN
F 1 "V+" H 1800 7013 50  0000 C CNN
F 2 "" H 1800 6900 60  0000 C CNN
F 3 "" H 1800 6900 60  0000 C CNN
	1    1800 6900
	1    0    0    -1  
$EndComp
$Comp
L LM393M U3
U 3 1 55C923EB
P 2500 7300
F 0 "U3" H 2630 7350 50  0000 L CNN
F 1 "LM393M" H 2630 7250 50  0000 L CNN
F 2 "IPC7351-Nominal:SOIC127P600X175-8" H 2500 7050 50  0001 C CNN
F 3 "" V 2500 7450 60  0000 C CNN
F 4 "IC TI LM393M" H 2500 6950 60  0001 C CNN "BOM"
	3    2500 7300
	1    0    0    -1  
$EndComp
$Comp
L V+ #PWR025
U 1 1 55C9265D
P 2500 6900
F 0 "#PWR025" H 2500 6950 30  0001 C CNN
F 1 "V+" H 2500 7013 50  0000 C CNN
F 2 "" H 2500 6900 60  0000 C CNN
F 3 "" H 2500 6900 60  0000 C CNN
	1    2500 6900
	1    0    0    -1  
$EndComp
$Comp
L V- #PWR026
U 1 1 55C94648
P 1800 7700
F 0 "#PWR026" H 1800 7650 30  0001 C CNN
F 1 "V-" H 1800 7587 50  0000 C CNN
F 2 "" H 1800 7700 60  0000 C CNN
F 3 "" H 1800 7700 60  0000 C CNN
	1    1800 7700
	1    0    0    -1  
$EndComp
$Comp
L PZT3904 Q12
U 1 1 55C96FD7
P 7400 1600
F 0 "Q12" V 7666 1600 50  0000 C CNN
F 1 "PZT3904" V 7566 1600 50  0000 C CNN
F 2 "smd-semi:SOT-223" H 7400 1600 50  0001 C CNN
F 3 "" H 7400 1600 60  0000 C CNN
F 4 "NPN PZT3904" H 7400 1600 60  0001 C CNN "BOM"
	1    7400 1600
	0    -1   -1   0   
$EndComp
$Comp
L MMBT4403 Q8
U 1 1 55CC2E99
P 5450 1500
F 0 "Q8" H 5541 1550 50  0000 L CNN
F 1 "4403" H 5541 1450 50  0000 L CNN
F 2 "smd-semi:SOT-23" H 5450 1650 50  0001 C CNN
F 3 "" H 5450 1500 60  0000 C CNN
F 4 "PNP MMBT4403" H 5450 1750 60  0001 C CNN "BOM"
	1    5450 1500
	1    0    0    -1  
$EndComp
$Comp
L BZX84 DZ1
U 1 1 55CC3C9D
P 8200 1650
F 0 "DZ1" H 8280 1700 50  0000 L CNN
F 1 "84B24" H 8280 1600 50  0000 L CNN
F 2 "smd-semi:SOT-23" H 8200 1650 50  0001 C CNN
F 3 "" H 8200 1650 60  0000 C CNN
F 4 "DIST DIGIKEY 568-8063-1-ND" H 8200 1650 60  0001 C CNN "BOM"
	1    8200 1650
	1    0    0    -1  
$EndComp
Text HLabel 9850 2400 2    50   Output ~ 0
SCR_FIRE
$Comp
L LM393M U4
U 1 1 55CC60C1
P 3800 1900
F 0 "U4" H 3850 1545 50  0000 C CNN
F 1 "LM393M" H 3850 1645 50  0000 C CNN
F 2 "IPC7351-Nominal:SOIC127P600X175-8" H 3800 1650 50  0001 C CNN
F 3 "" V 3800 2050 60  0000 C CNN
F 4 "IC TI LM393M" H 3800 1550 60  0001 C CNN "BOM"
	1    3800 1900
	1    0    0    1   
$EndComp
$Comp
L LM393M U4
U 2 1 55CC62D2
P 9300 2100
F 0 "U4" H 9350 1745 50  0000 C CNN
F 1 "LM393M" H 9350 1845 50  0000 C CNN
F 2 "IPC7351-Nominal:SOIC127P600X175-8" H 9300 1850 50  0001 C CNN
F 3 "" V 9300 2250 60  0000 C CNN
F 4 "IC TI LM393M" H 9300 1750 60  0001 C CNN "BOM"
	2    9300 2100
	1    0    0    1   
$EndComp
Text HLabel 1100 1800 0    50   Input ~ 0
OVP_THRESH
$Comp
L LM393M U4
U 3 1 55CCDE90
P 3100 7300
F 0 "U4" H 3230 7350 50  0000 L CNN
F 1 "LM393M" H 3230 7250 50  0000 L CNN
F 2 "IPC7351-Nominal:SOIC127P600X175-8" H 3100 7050 50  0001 C CNN
F 3 "" V 3100 7450 60  0000 C CNN
F 4 "IC TI LM393M" H 3100 6950 60  0001 C CNN "BOM"
	3    3100 7300
	1    0    0    -1  
$EndComp
$Comp
L V+ #PWR027
U 1 1 55CCDE96
P 3100 6900
F 0 "#PWR027" H 3100 6950 30  0001 C CNN
F 1 "V+" H 3100 7013 50  0000 C CNN
F 2 "" H 3100 6900 60  0000 C CNN
F 3 "" H 3100 6900 60  0000 C CNN
	1    3100 6900
	1    0    0    -1  
$EndComp
$Comp
L R-2512 R28
U 1 1 55CD2667
P 5500 1850
F 0 "R28" H 5437 1800 50  0000 R CNN
F 1 "1k" H 5437 1900 50  0000 R CNN
F 2 "IPC7351-Nominal:RESC6432X70" H 5500 1850 50  0001 C CNN
F 3 "" H 5500 1900 60  0000 C CNN
F 4 "RES SMD 1k [2512]" H 6250 2400 60  0001 C CNN "BOM"
F 5 "Value" H 5500 1850 60  0001 C CNN "Manuf"
	1    5500 1850
	-1   0    0    1   
$EndComp
$Comp
L GND #PWR028
U 1 1 55CD6348
P 8650 2050
F 0 "#PWR028" H 8650 2050 30  0001 C CNN
F 1 "GND" H 8650 1980 30  0001 C CNN
F 2 "" H 8650 2050 60  0000 C CNN
F 3 "" H 8650 2050 60  0000 C CNN
	1    8650 2050
	1    0    0    -1  
$EndComp
$Comp
L +3.3 #PWR029
U 1 1 55CD72D2
P 8650 1350
F 0 "#PWR029" H 8650 1400 30  0001 C CNN
F 1 "+3.3" H 8650 1463 50  0000 C CNN
F 2 "" H 8650 1350 60  0000 C CNN
F 3 "" H 8650 1350 60  0000 C CNN
	1    8650 1350
	1    0    0    -1  
$EndComp
$Comp
L +3.3 #PWR030
U 1 1 55CD7613
P 9750 1500
F 0 "#PWR030" H 9750 1550 30  0001 C CNN
F 1 "+3.3" H 9750 1613 50  0000 C CNN
F 2 "" H 9750 1500 60  0000 C CNN
F 3 "" H 9750 1500 60  0000 C CNN
	1    9750 1500
	1    0    0    -1  
$EndComp
Text HLabel 9850 2100 2    50   Output ~ 0
~SCR_TRIPPED
$Comp
L BAT54AWT D3
U 1 1 55D12498
P 6900 5000
F 0 "D3" V 6950 5105 50  0000 L CNN
F 1 "BAT54AWT" V 6850 5105 50  0000 L CNN
F 2 "smd-semi:SC-70" H 6900 5000 50  0001 C CNN
F 3 "" V 6800 5000 60  0000 C CNN
F 4 "SCHOTTKY BAT54AWT" H 7400 5750 60  0001 C CNN "BOM"
	1    6900 5000
	0    -1   -1   0   
$EndComp
$Comp
L C-0603 C?
U 1 1 55D23D8B
P 4200 6900
AR Path="/55C7F4BB/55D23D8B" Ref="C?"  Part="1" 
AR Path="/55D23D8B" Ref="C?"  Part="1" 
AR Path="/55C7FF09/55D23D8B" Ref="C22"  Part="1" 
F 0 "C22" H 4087 6850 50  0000 R CNN
F 1 "100n" H 4087 6950 50  0000 R CNN
F 2 "IPC7351-Nominal:CAPC1608X55" H 4200 6900 50  0001 C CNN
F 3 "" H 4190 6875 60  0000 C CNN
F 4 "Value" H 4200 6900 60  0001 C CNN "Manuf"
F 5 "CAP MLCC 100n ≥X5R 35V 10% [0603]" H 5000 7450 60  0001 C CNN "BOM"
	1    4200 6900
	-1   0    0    1   
$EndComp
$Comp
L C-0603 C?
U 1 1 55D23E4B
P 5000 6900
AR Path="/55C7F4BB/55D23E4B" Ref="C?"  Part="1" 
AR Path="/55D23E4B" Ref="C?"  Part="1" 
AR Path="/55C7FF09/55D23E4B" Ref="C26"  Part="1" 
F 0 "C26" H 4887 6850 50  0000 R CNN
F 1 "100n" H 4887 6950 50  0000 R CNN
F 2 "IPC7351-Nominal:CAPC1608X55" H 5000 6900 50  0001 C CNN
F 3 "" H 4990 6875 60  0000 C CNN
F 4 "Value" H 5000 6900 60  0001 C CNN "Manuf"
F 5 "CAP MLCC 100n ≥X5R 35V 10% [0603]" H 5800 7450 60  0001 C CNN "BOM"
	1    5000 6900
	-1   0    0    1   
$EndComp
$Comp
L V+ #PWR031
U 1 1 55D24447
P 4200 6800
F 0 "#PWR031" H 4200 6850 30  0001 C CNN
F 1 "V+" H 4200 6913 50  0000 C CNN
F 2 "" H 4200 6800 60  0000 C CNN
F 3 "" H 4200 6800 60  0000 C CNN
	1    4200 6800
	1    0    0    -1  
$EndComp
$Comp
L V+ #PWR032
U 1 1 55D245C5
P 5000 6800
F 0 "#PWR032" H 5000 6850 30  0001 C CNN
F 1 "V+" H 5000 6913 50  0000 C CNN
F 2 "" H 5000 6800 60  0000 C CNN
F 3 "" H 5000 6800 60  0000 C CNN
	1    5000 6800
	1    0    0    -1  
$EndComp
$Comp
L V- #PWR033
U 1 1 55D24684
P 3800 7600
F 0 "#PWR033" H 3800 7550 30  0001 C CNN
F 1 "V-" H 3800 7487 50  0000 C CNN
F 2 "" H 3800 7600 60  0000 C CNN
F 3 "" H 3800 7600 60  0000 C CNN
	1    3800 7600
	-1   0    0    1   
$EndComp
$Comp
L V- #PWR034
U 1 1 55D24879
P 4200 7600
F 0 "#PWR034" H 4200 7550 30  0001 C CNN
F 1 "V-" H 4200 7487 50  0000 C CNN
F 2 "" H 4200 7600 60  0000 C CNN
F 3 "" H 4200 7600 60  0000 C CNN
	1    4200 7600
	-1   0    0    1   
$EndComp
$Comp
L REFGND #PWR035
U 1 1 55D02E87
P 3850 4250
F 0 "#PWR035" H 3850 4250 30  0001 C CNN
F 1 "REFGND" H 3850 4180 30  0001 C CNN
F 2 "" H 3850 4250 60  0000 C CNN
F 3 "" H 3850 4250 60  0000 C CNN
	1    3850 4250
	1    0    0    -1  
$EndComp
$Comp
L REFGND #PWR036
U 1 1 55D02F4D
P 3850 6050
F 0 "#PWR036" H 3850 6050 30  0001 C CNN
F 1 "REFGND" H 3850 5980 30  0001 C CNN
F 2 "" H 3850 6050 60  0000 C CNN
F 3 "" H 3850 6050 60  0000 C CNN
	1    3850 6050
	1    0    0    -1  
$EndComp
$Comp
L GND #PWR037
U 1 1 55D19090
P 2500 7750
F 0 "#PWR037" H 2500 7750 30  0001 C CNN
F 1 "GND" H 2500 7680 30  0001 C CNN
F 2 "" H 2500 7750 60  0000 C CNN
F 3 "" H 2500 7750 60  0000 C CNN
	1    2500 7750
	1    0    0    -1  
$EndComp
$Comp
L GND #PWR038
U 1 1 55D18EFD
P 3100 7750
F 0 "#PWR038" H 3100 7750 30  0001 C CNN
F 1 "GND" H 3100 7680 30  0001 C CNN
F 2 "" H 3100 7750 60  0000 C CNN
F 3 "" H 3100 7750 60  0000 C CNN
	1    3100 7750
	1    0    0    -1  
$EndComp
$Comp
L GND #PWR039
U 1 1 55D24051
P 4200 7850
F 0 "#PWR039" H 4200 7850 30  0001 C CNN
F 1 "GND" H 4200 7780 30  0001 C CNN
F 2 "" H 4200 7850 60  0000 C CNN
F 3 "" H 4200 7850 60  0000 C CNN
	1    4200 7850
	1    0    0    -1  
$EndComp
$Comp
L GND #PWR040
U 1 1 55D24042
P 3800 7850
F 0 "#PWR040" H 3800 7850 30  0001 C CNN
F 1 "GND" H 3800 7780 30  0001 C CNN
F 2 "" H 3800 7850 60  0000 C CNN
F 3 "" H 3800 7850 60  0000 C CNN
	1    3800 7850
	1    0    0    -1  
$EndComp
$Comp
L GND #PWR041
U 1 1 55D23E51
P 5000 7050
F 0 "#PWR041" H 5000 7050 30  0001 C CNN
F 1 "GND" H 5000 6980 30  0001 C CNN
F 2 "" H 5000 7050 60  0000 C CNN
F 3 "" H 5000 7050 60  0000 C CNN
	1    5000 7050
	1    0    0    -1  
$EndComp
$Comp
L GND #PWR042
U 1 1 55D23D91
P 4200 7050
F 0 "#PWR042" H 4200 7050 30  0001 C CNN
F 1 "GND" H 4200 6980 30  0001 C CNN
F 2 "" H 4200 7050 60  0000 C CNN
F 3 "" H 4200 7050 60  0000 C CNN
	1    4200 7050
	1    0    0    -1  
$EndComp
$Comp
L GND #PWR043
U 1 1 55D23BBA
P 3800 7050
F 0 "#PWR043" H 3800 7050 30  0001 C CNN
F 1 "GND" H 3800 6980 30  0001 C CNN
F 2 "" H 3800 7050 60  0000 C CNN
F 3 "" H 3800 7050 60  0000 C CNN
	1    3800 7050
	1    0    0    -1  
$EndComp
$Comp
L C-0603 C?
U 1 1 55D14FA6
P 4600 6900
AR Path="/55C7F4BB/55D14FA6" Ref="C?"  Part="1" 
AR Path="/55D14FA6" Ref="C?"  Part="1" 
AR Path="/55C7FF09/55D14FA6" Ref="C24"  Part="1" 
F 0 "C24" H 4487 6850 50  0000 R CNN
F 1 "100n" H 4487 6950 50  0000 R CNN
F 2 "IPC7351-Nominal:CAPC1608X55" H 4600 6900 50  0001 C CNN
F 3 "" H 4590 6875 60  0000 C CNN
F 4 "Value" H 4600 6900 60  0001 C CNN "Manuf"
F 5 "CAP MLCC 100n ≥X5R 35V 10% [0603]" H 5400 7450 60  0001 C CNN "BOM"
	1    4600 6900
	-1   0    0    1   
$EndComp
$Comp
L V+ #PWR044
U 1 1 55D1507A
P 4600 6800
F 0 "#PWR044" H 4600 6850 30  0001 C CNN
F 1 "V+" H 4600 6913 50  0000 C CNN
F 2 "" H 4600 6800 60  0000 C CNN
F 3 "" H 4600 6800 60  0000 C CNN
	1    4600 6800
	1    0    0    -1  
$EndComp
$Comp
L GND #PWR045
U 1 1 55D15139
P 4600 7050
F 0 "#PWR045" H 4600 7050 30  0001 C CNN
F 1 "GND" H 4600 6980 30  0001 C CNN
F 2 "" H 4600 7050 60  0000 C CNN
F 3 "" H 4600 7050 60  0000 C CNN
	1    4600 7050
	1    0    0    -1  
$EndComp
$Comp
L BAT54AWT D4
U 1 1 55D312A2
P 7800 2100
F 0 "D4" H 7800 2250 50  0000 C CNN
F 1 "BAT54AWT" H 7800 2350 50  0000 C CNN
F 2 "smd-semi:SC-70" H 7800 2100 50  0001 C CNN
F 3 "" V 7700 2100 60  0000 C CNN
F 4 "SCHOTTKY BAT54AWT" H 8300 2850 60  0001 C CNN "BOM"
	1    7800 2100
	1    0    0    1   
$EndComp
$Comp
L 2N7002PW Q9
U 1 1 55D3A7E9
P 7050 6650
F 0 "Q9" H 7141 6700 50  0000 L CNN
F 1 "2N7002PW" H 7141 6600 50  0000 L CNN
F 2 "smd-semi:SC-70" H 7050 6650 50  0001 C CNN
F 3 "" H 7050 6650 60  0000 C CNN
F 4 "NMOS NXP 2N7002PW" H 7850 7200 60  0001 C CNN "BOM"
	1    7050 6650
	1    0    0    -1  
$EndComp
$Comp
L GND #PWR046
U 1 1 55D3A97A
P 7100 6800
F 0 "#PWR046" H 7100 6800 30  0001 C CNN
F 1 "GND" H 7100 6730 30  0001 C CNN
F 2 "" H 7100 6800 60  0000 C CNN
F 3 "" H 7100 6800 60  0000 C CNN
	1    7100 6800
	1    0    0    -1  
$EndComp
$Comp
L V+ #PWR047
U 1 1 55D3BAE4
P 6600 6400
F 0 "#PWR047" H 6600 6450 30  0001 C CNN
F 1 "V+" H 6600 6513 50  0000 C CNN
F 2 "" H 6600 6400 60  0000 C CNN
F 3 "" H 6600 6400 60  0000 C CNN
	1    6600 6400
	1    0    0    -1  
$EndComp
Text HLabel 6400 6700 0    50   Input ~ 0
~EN
Text Notes 11100 4900 0    50   ~ 0
Separate VLIM and ILIM signals with asymmetric\nrise/fall allows detection of CC/CV oscillations\nfaster than the controller's scan rate.\n\nIn the case of oscillation, both limit signals will\nbe low. This requires an input with hysteresis,\nwhich the XMEGA E5 has on all GPIOs.
Text Notes 8850 1650 0    50   ~ 0
(0.49V)
$Comp
L GND #PWR048
U 1 1 55D6B0A6
P 2700 2150
F 0 "#PWR048" H 2700 2150 30  0001 C CNN
F 1 "GND" H 2700 2080 30  0001 C CNN
F 2 "" H 2700 2150 60  0000 C CNN
F 3 "" H 2700 2150 60  0000 C CNN
	1    2700 2150
	1    0    0    -1  
$EndComp
$Comp
L BEAD-0603 E?
U 1 1 55D46973
P 7800 1250
AR Path="/55CEE1A2/55D46973" Ref="E?"  Part="1" 
AR Path="/55CDE77D/55D46973" Ref="E?"  Part="1" 
AR Path="/55C7FF09/55D46973" Ref="E1"  Part="1" 
F 0 "E1" V 7750 1338 50  0000 L CNN
F 1 "120" V 7850 1338 50  0000 L CNN
F 2 "IPC7351-Nominal:INDC1608X95" H 7800 1250 50  0001 C CNN
F 3 "" H 7800 1300 60  0000 C CNN
F 4 "BEAD SMD 120 250mA [0603]" H 7800 1250 60  0001 C CNN "BOM"
	1    7800 1250
	0    1    1    0   
$EndComp
Text Notes 400  350  0    50   ~ 0
Test conditions:\nVout = 12V    Vovp = 15V\nIout = 1A      Ilim = 1.5A
Text Notes 1200 1050 0    50   ~ 0
(14.50V)
Connection ~ 8650 2400
Wire Wire Line
	8650 2400 8650 2200
Wire Wire Line
	8650 2200 9000 2200
Connection ~ 4000 3000
Wire Wire Line
	4000 3000 4000 2500
Wire Wire Line
	4000 2500 3400 2500
Wire Wire Line
	3400 2500 3400 2000
Wire Wire Line
	3400 2000 3500 2000
Wire Wire Line
	4200 1900 4800 1900
Connection ~ 8200 2400
Connection ~ 8200 1100
Wire Wire Line
	8200 1100 8200 1550
Wire Wire Line
	8200 1750 8200 2400
Wire Wire Line
	5500 2400 9850 2400
Connection ~ 5500 1100
Wire Wire Line
	5500 1100 5500 1400
Connection ~ 4800 1100
Wire Wire Line
	7200 1100 9850 1100
Connection ~ 7250 1550
Wire Wire Line
	7250 1550 7250 1500
Wire Wire Line
	7250 1500 7300 1500
Connection ~ 7800 1100
Connection ~ 6450 1100
Wire Wire Line
	8350 6200 9850 6200
Wire Wire Line
	8350 4500 9850 4500
Connection ~ 8350 6200
Connection ~ 8350 4500
Wire Wire Line
	8350 6650 8350 6600
Connection ~ 8350 6300
Wire Wire Line
	8350 4950 8350 4900
Connection ~ 8350 4600
Wire Wire Line
	8350 5800 8350 5850
Wire Wire Line
	8350 4150 8350 4200
Wire Wire Line
	8350 6300 8250 6300
Wire Wire Line
	8350 6050 8350 6400
Wire Wire Line
	8350 4600 8250 4600
Wire Wire Line
	8350 4400 8350 4700
Connection ~ 3850 5750
Wire Wire Line
	3050 5750 3050 5400
Wire Wire Line
	3850 5750 3050 5750
Wire Wire Line
	3850 6050 3850 6000
Wire Wire Line
	3850 5650 3850 5800
Connection ~ 3850 5300
Wire Wire Line
	3850 5450 3850 5300
Connection ~ 4850 5300
Wire Wire Line
	4850 5300 4850 5700
Wire Wire Line
	4850 5700 5100 5700
Connection ~ 5500 5700
Wire Wire Line
	3750 5300 9850 5300
Connection ~ 3800 3000
Wire Wire Line
	3550 3000 9850 3000
Connection ~ 4500 3700
Wire Wire Line
	4500 3400 4600 3400
Wire Wire Line
	4500 3700 4500 3400
Wire Wire Line
	3800 3000 3800 3700
Connection ~ 5200 3700
Wire Wire Line
	5200 3400 5200 3700
Wire Wire Line
	5100 3400 5200 3400
Connection ~ 5500 3700
Wire Wire Line
	4800 3400 4900 3400
Connection ~ 3800 3600
Connection ~ 2000 4200
Connection ~ 2000 2700
Wire Wire Line
	1100 4200 2250 4200
Wire Wire Line
	2000 3900 2000 4200
Wire Wire Line
	2100 3900 2000 3900
Connection ~ 2700 4200
Wire Wire Line
	2700 3900 2700 4200
Wire Wire Line
	2600 3900 2700 3900
Wire Wire Line
	2400 3900 2300 3900
Wire Wire Line
	1100 2700 2100 2700
Wire Wire Line
	2000 3000 2000 2700
Wire Wire Line
	2250 3000 2000 3000
Connection ~ 2700 3000
Wire Wire Line
	2700 2700 2700 3000
Wire Wire Line
	2600 2700 2700 2700
Wire Wire Line
	2400 2700 2300 2700
Connection ~ 2850 4200
Connection ~ 2850 3000
Wire Wire Line
	2450 3000 3350 3000
Wire Wire Line
	2850 3000 2850 3500
Wire Wire Line
	2850 3500 3050 3500
Wire Wire Line
	2850 3700 3050 3700
Wire Wire Line
	2850 4200 2850 3700
Wire Wire Line
	2450 4200 3350 4200
Wire Wire Line
	3850 4200 3850 4250
Wire Wire Line
	3550 4200 3850 4200
Wire Wire Line
	3800 3700 4750 3700
Wire Wire Line
	3750 3600 3800 3600
Wire Wire Line
	1100 6200 5600 6200
Wire Wire Line
	1100 4700 5500 4700
Wire Wire Line
	5500 6000 5600 6000
Wire Wire Line
	5500 5700 5500 6000
Wire Wire Line
	5300 5700 5800 5700
Connection ~ 6400 6100
Wire Wire Line
	6400 5600 6400 6100
Wire Wire Line
	6000 5700 6400 5700
Wire Wire Line
	4700 4300 5600 4300
Wire Wire Line
	5500 3700 5500 4300
Wire Wire Line
	4950 3700 5850 3700
Connection ~ 6400 4400
Wire Wire Line
	6400 3600 6400 4400
Wire Wire Line
	6050 3700 6400 3700
Connection ~ 7100 2250
Wire Wire Line
	6450 2250 6450 2200
Wire Wire Line
	7100 2250 6450 2250
Connection ~ 6450 1900
Wire Notes Line
	7350 850  6850 850 
Wire Notes Line
	7350 1300 7350 850 
Wire Notes Line
	6850 1300 7350 1300
Wire Notes Line
	6850 850  6850 1300
Wire Wire Line
	6450 1900 7000 1900
Wire Wire Line
	6450 1550 6650 1550
Wire Wire Line
	1100 1100 7000 1100
Connection ~ 7100 1550
Connection ~ 7400 1900
Connection ~ 7800 1550
Wire Wire Line
	7800 1900 7700 1900
Wire Wire Line
	7400 1900 7400 1700
Wire Wire Line
	7200 1900 7500 1900
Wire Wire Line
	7100 1550 7100 1250
Wire Wire Line
	6850 1550 7300 1550
Wire Wire Line
	7800 1550 7500 1550
Wire Wire Line
	8650 2050 8650 2000
Wire Wire Line
	8650 1600 8650 1800
Wire Wire Line
	8650 1700 8950 1700
Wire Wire Line
	8950 1700 8950 2000
Wire Wire Line
	8950 2000 9000 2000
Connection ~ 8650 1700
Wire Wire Line
	8650 1350 8650 1400
Wire Wire Line
	9750 1750 9750 2100
Wire Wire Line
	9700 2100 9850 2100
Wire Wire Line
	9750 1500 9750 1550
Connection ~ 9750 2100
Wire Wire Line
	2700 5200 3050 5200
Wire Wire Line
	2500 5200 1100 5200
Wire Wire Line
	1100 1800 2400 1800
Wire Wire Line
	2600 1800 3500 1800
Wire Wire Line
	5500 1750 5500 1600
Wire Wire Line
	5500 1950 5500 2400
Wire Wire Line
	4800 1100 4800 1200
Wire Wire Line
	4800 1400 4800 1600
Wire Wire Line
	5350 1500 4800 1500
Connection ~ 4800 1500
Wire Wire Line
	4800 1900 4800 1800
Wire Wire Line
	7100 2050 7100 2500
Wire Wire Line
	7100 2700 7100 6550
Wire Wire Line
	7100 5000 7000 5000
Wire Wire Line
	7550 4500 7100 4500
Connection ~ 7100 4500
Wire Wire Line
	7100 6200 7550 6200
Connection ~ 7100 5000
Wire Wire Line
	6300 4400 6900 4400
Wire Wire Line
	6900 4400 6900 4800
Wire Wire Line
	7550 4700 6900 4700
Connection ~ 6900 4700
Wire Wire Line
	6900 5200 6900 6400
Wire Wire Line
	6300 6100 6900 6100
Wire Wire Line
	6900 6400 7550 6400
Connection ~ 6900 6100
Wire Wire Line
	3100 7750 3100 7700
Wire Wire Line
	2500 7750 2500 7700
Wire Wire Line
	3800 7050 3800 7000
Wire Wire Line
	4200 7050 4200 7000
Wire Wire Line
	5000 7050 5000 7000
Wire Wire Line
	3800 7850 3800 7800
Wire Wire Line
	4200 7850 4200 7800
Wire Wire Line
	4600 7050 4600 7000
Connection ~ 7800 1900
Wire Wire Line
	7600 2100 7450 2100
Wire Wire Line
	7450 2100 7450 1900
Connection ~ 7450 1900
Wire Wire Line
	8000 2100 8100 2100
Wire Wire Line
	8100 2100 8100 2300
Connection ~ 7100 2300
Wire Wire Line
	8100 2300 7100 2300
Connection ~ 7100 6200
Wire Wire Line
	7100 6800 7100 6750
Wire Wire Line
	6600 6600 6600 6700
Wire Wire Line
	6400 6700 7000 6700
Connection ~ 6600 6700
Wire Wire Line
	2700 1900 2700 1800
Connection ~ 2700 1800
Wire Wire Line
	2700 2150 2700 2100
Wire Wire Line
	7800 1350 7800 2000
Wire Wire Line
	7800 1150 7800 1100
Text Notes 1200 1750 0    50   ~ 0
(1.36V)
Text Notes 1200 2650 0    50   ~ 0
(0.01V)
Text Notes 1200 4150 0    50   ~ 0
(12.01V)
Text Notes 1200 4800 0    50   ~ 0
(1.09V)
Text Notes 1200 5150 0    50   ~ 0
(0.01V)
Text Notes 1200 6150 0    50   ~ 0
(0.96V)
Text Notes 3750 5250 0    50   ~ 0
(0.64V)
Text Notes 3900 3650 0    50   ~ 0
(1.09V)
Text Notes 9400 1050 0    50   ~ 0
(12.00V)
Text Notes 7150 3800 0    50   ~ 0
(13.30V)
Text Notes 6500 4350 0    50   ~ 0
(13.00V)
Text Notes 6500 6050 0    50   ~ 0
(23.00V)
Text Notes 9150 4450 0    50   ~ 0
(0.01V)
Text Notes 9200 6150 0    50   ~ 0
(3.30V)
Text Notes 9100 2500 0    50   ~ 0
(0.05V)
Text Notes 9800 1950 0    50   ~ 0
(3.30V)
Text Notes 7250 2200 0    50   ~ 0
(12.65V)
Text Notes 4300 1850 0    50   ~ 0
(14.50V)
Text Notes 6750 1450 0    50   ~ 0
(13.77V)
$Comp
L TESTPOINT TP6
U 1 1 55E030C4
P 1600 1700
F 0 "TP6" H 1660 1825 50  0000 L CNN
F 1 "OVP_TH" H 1660 1725 50  0000 L CNN
F 2 "conn-test:TEST-SMD-SMALL" H 1660 1675 50  0001 L CNN
F 3 "" H 1600 1700 50  0000 C CNN
	1    1600 1700
	1    0    0    -1  
$EndComp
Wire Wire Line
	1600 1700 1600 1800
Connection ~ 1600 1800
Text Notes 700  3450 0    50   ~ 0
PROBE POINT FOR VSENSE+/-:\nDirectly across output connectors
Text Notes 800  5500 0    50   ~ 0
PROBE POINT FOR ISENSE:\nDirectly across R3
$Comp
L TESTPOINT TP7
U 1 1 55E058D1
P 4200 2900
F 0 "TP7" H 4260 3025 50  0000 L CNN
F 1 "VSENSE" H 4260 2925 50  0000 L CNN
F 2 "conn-test:TEST-SMD-SMALL" H 4260 2875 50  0001 L CNN
F 3 "" H 4200 2900 50  0000 C CNN
	1    4200 2900
	1    0    0    -1  
$EndComp
Wire Wire Line
	4200 2900 4200 3000
Connection ~ 4200 3000
$Comp
L TESTPOINT TP8
U 1 1 55E06BC9
P 4900 4600
F 0 "TP8" H 4960 4725 50  0000 L CNN
F 1 "VSET" H 4960 4625 50  0000 L CNN
F 2 "conn-test:TEST-SMD-SMALL" H 4960 4575 50  0001 L CNN
F 3 "" H 4900 4600 50  0000 C CNN
	1    4900 4600
	1    0    0    -1  
$EndComp
Wire Wire Line
	4900 4600 4900 4700
Connection ~ 4900 4700
$Comp
L TESTPOINT TP9
U 1 1 55E08634
P 4200 5200
F 0 "TP9" H 4260 5325 50  0000 L CNN
F 1 "ISENSE" H 4260 5225 50  0000 L CNN
F 2 "conn-test:TEST-SMD-SMALL" H 4260 5175 50  0001 L CNN
F 3 "" H 4200 5200 50  0000 C CNN
	1    4200 5200
	1    0    0    -1  
$EndComp
Wire Wire Line
	4200 5200 4200 5300
Connection ~ 4200 5300
$Comp
L TESTPOINT TP10
U 1 1 55E09BAB
P 4200 6100
F 0 "TP10" H 4260 6225 50  0000 L CNN
F 1 "ISET" H 4260 6125 50  0000 L CNN
F 2 "conn-test:TEST-SMD-SMALL" H 4260 6075 50  0001 L CNN
F 3 "" H 4200 6100 50  0000 C CNN
	1    4200 6100
	1    0    0    -1  
$EndComp
Wire Wire Line
	4200 6100 4200 6200
Connection ~ 4200 6200
$Comp
L TESTPOINT TP11
U 1 1 55E0B640
P 6400 3600
F 0 "TP11" H 6460 3725 50  0000 L CNN
F 1 "VDRIVE" H 6460 3625 50  0000 L CNN
F 2 "conn-test:TEST-SMD-SMALL" H 6460 3575 50  0001 L CNN
F 3 "" H 6400 3600 50  0000 C CNN
	1    6400 3600
	1    0    0    -1  
$EndComp
Connection ~ 6400 3700
$Comp
L TESTPOINT TP12
U 1 1 55E0B8C9
P 6400 5600
F 0 "TP12" H 6460 5725 50  0000 L CNN
F 1 "IDRIVE" H 6460 5625 50  0000 L CNN
F 2 "conn-test:TEST-SMD-SMALL" H 6460 5575 50  0001 L CNN
F 3 "" H 6400 5600 50  0000 C CNN
	1    6400 5600
	1    0    0    -1  
$EndComp
Connection ~ 6400 5700
$Comp
L TESTPOINT TP13
U 1 1 55E0BBAD
P 7200 3500
F 0 "TP13" V 7150 3689 50  0000 L CNN
F 1 "DRIVE" V 7250 3689 50  0000 L CNN
F 2 "conn-test:TEST-SMD-SMALL" H 7260 3475 50  0001 L CNN
F 3 "" H 7200 3500 50  0000 C CNN
	1    7200 3500
	0    1    1    0   
$EndComp
Wire Wire Line
	7200 3500 7100 3500
Connection ~ 7100 3500
Text Notes 3100 5700 0    50   ~ 0
Av=64.22
$Comp
L OPA2376AIDGK U1
U 2 1 55FB2315
P 3350 3600
F 0 "U1" H 3400 3955 50  0000 C CNN
F 1 "OPA2376AIDGK" H 3400 3855 50  0000 C CNN
F 2 "IPC7351-Nominal:SOP65P490X110-8" H 3350 3350 50  0001 C CNN
F 3 "" V 3350 3750 60  0000 C CNN
F 4 "IC TI OPA2376AIDGK" H 3350 3250 60  0001 C CNN "BOM"
	2    3350 3600
	1    0    0    -1  
$EndComp
$Comp
L OPA2376AIDGK U1
U 1 1 55FB28FC
P 3350 5300
F 0 "U1" H 3400 4945 50  0000 C CNN
F 1 "OPA2376AIDGK" H 3400 5045 50  0000 C CNN
F 2 "IPC7351-Nominal:SOP65P490X110-8" H 3350 5050 50  0001 C CNN
F 3 "" V 3350 5450 60  0000 C CNN
F 4 "IC TI OPA2376AIDGK" H 3350 4950 60  0001 C CNN "BOM"
	1    3350 5300
	1    0    0    1   
$EndComp
$Comp
L OPA2376AIDGK U1
U 3 1 55FB30AA
P 900 7300
F 0 "U1" H 1030 7350 50  0000 L CNN
F 1 "OPA2376AIDGK" H 1030 7250 50  0000 L CNN
F 2 "IPC7351-Nominal:SOP65P490X110-8" H 900 7050 50  0001 C CNN
F 3 "" V 900 7450 60  0000 C CNN
F 4 "IC TI OPA2376AIDGK" H 900 6950 60  0001 C CNN "BOM"
	3    900  7300
	1    0    0    -1  
$EndComp
$Comp
L LM358DGK U2
U 2 1 55FB7A1E
P 5900 4400
F 0 "U2" H 5950 4755 50  0000 C CNN
F 1 "LM358DGK" H 5950 4655 50  0000 C CNN
F 2 "IPC7351-Nominal:SOP65P490X110-8" H 5900 4150 50  0001 C CNN
F 3 "" V 5900 4550 60  0000 C CNN
F 4 "IC TI LM358DGK" H 5900 4050 60  0001 C CNN "BOM"
	2    5900 4400
	1    0    0    -1  
$EndComp
$Comp
L LM358DGK U2
U 1 1 55FB7E57
P 5900 6100
F 0 "U2" H 5950 5845 50  0000 C CNN
F 1 "LM358DGK" H 5950 5745 50  0000 C CNN
F 2 "IPC7351-Nominal:SOP65P490X110-8" H 5900 5850 50  0001 C CNN
F 3 "" V 5900 6250 60  0000 C CNN
F 4 "IC TI LM358DGK" H 5900 5750 60  0001 C CNN "BOM"
	1    5900 6100
	1    0    0    -1  
$EndComp
$Comp
L LM358DGK U2
U 3 1 55FB8760
P 1800 7300
F 0 "U2" H 1930 7350 50  0000 L CNN
F 1 "LM358DGK" H 1930 7250 50  0000 L CNN
F 2 "IPC7351-Nominal:SOP65P490X110-8" H 1800 7050 50  0001 C CNN
F 3 "" V 1800 7450 60  0000 C CNN
F 4 "IC TI LM358DGK" H 1800 6950 60  0001 C CNN "BOM"
	3    1800 7300
	1    0    0    -1  
$EndComp
$Comp
L R-0402 R25
U 1 1 55FB950C
P 4850 3700
F 0 "R25" V 4662 3700 50  0000 C CNN
F 1 "22k" V 4762 3700 50  0000 C CNN
F 2 "IPC7351-Nominal:RESC1005X40" H 4850 3700 50  0001 C CNN
F 3 "" H 4850 3750 60  0000 C CNN
F 4 "RES SMD 22k 1% [0402]" H 5600 4250 60  0001 C CNN "BOM"
	1    4850 3700
	0    1    1    0   
$EndComp
$Comp
L C-0402 C28
U 1 1 55FBA965
P 5950 3700
F 0 "C28" V 5712 3700 50  0000 C CNN
F 1 "220p" V 5812 3700 50  0000 C CNN
F 2 "IPC7351-Nominal:CAPC1005X55" H 5950 3700 50  0001 C CNN
F 3 "" H 5940 3675 60  0000 C CNN
F 4 "CAP MLCC 220p C0G 50V 10% [0402]" H 6750 4250 60  0001 C CNN "BOM"
	1    5950 3700
	0    1    1    0   
$EndComp
$Comp
L R-0402 R26
U 1 1 55FBB9A6
P 5000 3400
F 0 "R26" V 4812 3400 50  0000 C CNN
F 1 "2k" V 4912 3400 50  0000 C CNN
F 2 "IPC7351-Nominal:RESC1005X40" H 5000 3400 50  0001 C CNN
F 3 "" H 5000 3450 60  0000 C CNN
F 4 "RES SMD 2k 1% [0402]" H 5750 3950 60  0001 C CNN "BOM"
	1    5000 3400
	0    1    1    0   
$EndComp
$Comp
L C-0402 C25
U 1 1 55FBC7BE
P 4700 3400
F 0 "C25" V 4462 3400 50  0000 C CNN
F 1 "22n" V 4562 3400 50  0000 C CNN
F 2 "IPC7351-Nominal:CAPC1005X55" H 4700 3400 50  0001 C CNN
F 3 "" H 4690 3375 60  0000 C CNN
F 4 "CAP MLCC 22n ≥X5R 50V 10% [0402]" H 5500 3950 60  0001 C CNN "BOM"
	1    4700 3400
	0    1    1    0   
$EndComp
$Comp
L R-0402 R29
U 1 1 55FC0D19
P 6600 6500
F 0 "R29" H 6537 6450 50  0000 R CNN
F 1 "22k" H 6537 6550 50  0000 R CNN
F 2 "IPC7351-Nominal:RESC1005X40" H 6600 6500 50  0001 C CNN
F 3 "" H 6600 6550 60  0000 C CNN
F 4 "RES SMD 22k 1% [0402]" H 7350 7050 60  0001 C CNN "BOM"
	1    6600 6500
	-1   0    0    1   
$EndComp
$Comp
L R-0402 R20
U 1 1 55FC4073
P 3450 4200
F 0 "R20" V 3262 4200 50  0000 C CNN
F 1 "2k" V 3362 4200 50  0000 C CNN
F 2 "IPC7351-Nominal:RESC1005X40" H 3450 4200 50  0001 C CNN
F 3 "" H 3450 4250 60  0000 C CNN
F 4 "RES SMD 2k 1% [0402]" H 4200 4750 60  0001 C CNN "BOM"
	1    3450 4200
	0    1    1    0   
$EndComp
$Comp
L R-0402 R19
U 1 1 55FC4841
P 3450 3000
F 0 "R19" V 3262 3000 50  0000 C CNN
F 1 "2k" V 3362 3000 50  0000 C CNN
F 2 "IPC7351-Nominal:RESC1005X40" H 3450 3000 50  0001 C CNN
F 3 "" H 3450 3050 60  0000 C CNN
F 4 "RES SMD 2k 1% [0402]" H 4200 3550 60  0001 C CNN "BOM"
	1    3450 3000
	0    1    1    0   
$EndComp
$Comp
L R-0402 R15
U 1 1 55FC579A
P 2350 3000
F 0 "R15" V 2162 3000 50  0000 C CNN
F 1 "22k" V 2262 3000 50  0000 C CNN
F 2 "IPC7351-Nominal:RESC1005X40" H 2350 3000 50  0001 C CNN
F 3 "" H 2350 3050 60  0000 C CNN
F 4 "RES SMD 22k 1% [0402]" H 3100 3550 60  0001 C CNN "BOM"
	1    2350 3000
	0    1    1    0   
$EndComp
$Comp
L R-0402 R16
U 1 1 55FC5B44
P 2350 4200
F 0 "R16" V 2162 4200 50  0000 C CNN
F 1 "22k" V 2262 4200 50  0000 C CNN
F 2 "IPC7351-Nominal:RESC1005X40" H 2350 4200 50  0001 C CNN
F 3 "" H 2350 4250 60  0000 C CNN
F 4 "RES SMD 22k 1% [0402]" H 3100 4750 60  0001 C CNN "BOM"
	1    2350 4200
	0    1    1    0   
$EndComp
$Comp
L R-0402 R13
U 1 1 55FC66BD
P 2200 2700
F 0 "R13" V 2012 2700 50  0000 C CNN
F 1 "2k" V 2112 2700 50  0000 C CNN
F 2 "IPC7351-Nominal:RESC1005X40" H 2200 2700 50  0001 C CNN
F 3 "" H 2200 2750 60  0000 C CNN
F 4 "RES SMD 2k 1% [0402]" H 2950 3250 60  0001 C CNN "BOM"
	1    2200 2700
	0    1    1    0   
$EndComp
$Comp
L R-0402 R14
U 1 1 55FC6B1C
P 2200 3900
F 0 "R14" V 2012 3900 50  0000 C CNN
F 1 "2k" V 2112 3900 50  0000 C CNN
F 2 "IPC7351-Nominal:RESC1005X40" H 2200 3900 50  0001 C CNN
F 3 "" H 2200 3950 60  0000 C CNN
F 4 "RES SMD 2k 1% [0402]" H 2950 4450 60  0001 C CNN "BOM"
	1    2200 3900
	0    1    1    0   
$EndComp
$Comp
L C-0402 C17
U 1 1 55FC735D
P 2500 2700
F 0 "C17" V 2262 2700 50  0000 C CNN
F 1 "22n" V 2362 2700 50  0000 C CNN
F 2 "IPC7351-Nominal:CAPC1005X55" H 2500 2700 50  0001 C CNN
F 3 "" H 2490 2675 60  0000 C CNN
F 4 "CAP MLCC 22n ≥X5R 50V 10% [0402]" H 3300 3250 60  0001 C CNN "BOM"
	1    2500 2700
	0    1    1    0   
$EndComp
$Comp
L C-0402 C18
U 1 1 55FC7717
P 2500 3900
F 0 "C18" V 2262 3900 50  0000 C CNN
F 1 "22n" V 2362 3900 50  0000 C CNN
F 2 "IPC7351-Nominal:CAPC1005X55" H 2500 3900 50  0001 C CNN
F 3 "" H 2490 3875 60  0000 C CNN
F 4 "CAP MLCC 22n ≥X5R 50V 10% [0402]" H 3300 4450 60  0001 C CNN "BOM"
	1    2500 3900
	0    1    1    0   
$EndComp
$Comp
L C-0402 C27
U 1 1 55FC83EA
P 5900 5700
F 0 "C27" V 5662 5700 50  0000 C CNN
F 1 "22n" V 5762 5700 50  0000 C CNN
F 2 "IPC7351-Nominal:CAPC1005X55" H 5900 5700 50  0001 C CNN
F 3 "" H 5890 5675 60  0000 C CNN
F 4 "CAP MLCC 22n ≥X5R 50V 10% [0402]" H 6700 6250 60  0001 C CNN "BOM"
	1    5900 5700
	0    1    1    0   
$EndComp
$Comp
L R-0402 R27
U 1 1 55FC8C71
P 5200 5700
F 0 "R27" V 5012 5700 50  0000 C CNN
F 1 "2k" V 5112 5700 50  0000 C CNN
F 2 "IPC7351-Nominal:RESC1005X40" H 5200 5700 50  0001 C CNN
F 3 "" H 5200 5750 60  0000 C CNN
F 4 "RES SMD 2k 1% [0402]" H 5950 6250 60  0001 C CNN "BOM"
	1    5200 5700
	0    1    1    0   
$EndComp
$Comp
L C-0402 C?
U 1 1 55FCA915
P 3800 6900
AR Path="/55CDE77D/55FCA915" Ref="C?"  Part="1" 
AR Path="/55C7FF09/55FCA915" Ref="C20"  Part="1" 
F 0 "C20" H 3913 6950 50  0000 L CNN
F 1 "100n" H 3913 6850 50  0000 L CNN
F 2 "IPC7351-Nominal:CAPC1005X55" H 3800 6900 50  0001 C CNN
F 3 "" H 3790 6875 60  0000 C CNN
F 4 "CAP MLCC 100n ≥X5R 10V 20% [0402]" H 4600 7450 60  0001 C CNN "BOM"
	1    3800 6900
	1    0    0    -1  
$EndComp
$Comp
L C-0402 C?
U 1 1 55FCADC1
P 4200 7700
AR Path="/55CDE77D/55FCADC1" Ref="C?"  Part="1" 
AR Path="/55C7FF09/55FCADC1" Ref="C23"  Part="1" 
F 0 "C23" H 4313 7750 50  0000 L CNN
F 1 "100n" H 4313 7650 50  0000 L CNN
F 2 "IPC7351-Nominal:CAPC1005X55" H 4200 7700 50  0001 C CNN
F 3 "" H 4190 7675 60  0000 C CNN
F 4 "CAP MLCC 100n ≥X5R 10V 20% [0402]" H 5000 8250 60  0001 C CNN "BOM"
	1    4200 7700
	1    0    0    -1  
$EndComp
$Comp
L R-0402 R?
U 1 1 55FCC86B
P 3850 5900
AR Path="/55CDE77D/55FCC86B" Ref="R?"  Part="1" 
AR Path="/55C7FF09/55FCC86B" Ref="R22"  Part="1" 
F 0 "R22" H 3787 5850 50  0000 R CNN
F 1 "348" H 3787 5950 50  0000 R CNN
F 2 "IPC7351-Nominal:RESC1005X40" H 3850 5900 50  0001 C CNN
F 3 "" H 3850 5950 60  0000 C CNN
F 4 "RES SMD 348 1% [0402]" H 4600 6450 60  0001 C CNN "BOM"
	1    3850 5900
	-1   0    0    1   
$EndComp
$Comp
L R-0402 R21
U 1 1 55FCDDA6
P 3850 5550
F 0 "R21" H 3787 5500 50  0000 R CNN
F 1 "22k" H 3787 5600 50  0000 R CNN
F 2 "IPC7351-Nominal:RESC1005X40" H 3850 5550 50  0001 C CNN
F 3 "" H 3850 5600 60  0000 C CNN
F 4 "RES SMD 22k 1% [0402]" H 4600 6100 60  0001 C CNN "BOM"
	1    3850 5550
	-1   0    0    1   
$EndComp
$Comp
L R-0402 R18
U 1 1 55FCEAF2
P 2600 5200
F 0 "R18" V 2412 5200 50  0000 C CNN
F 1 "2k" V 2512 5200 50  0000 C CNN
F 2 "IPC7351-Nominal:RESC1005X40" H 2600 5200 50  0001 C CNN
F 3 "" H 2600 5250 60  0000 C CNN
F 4 "RES SMD 2k 1% [0402]" H 3350 5750 60  0001 C CNN "BOM"
	1    2600 5200
	0    1    1    0   
$EndComp
$Comp
L C-0402 C?
U 1 1 55FCF533
P 3800 7700
AR Path="/55CDE77D/55FCF533" Ref="C?"  Part="1" 
AR Path="/55C7FF09/55FCF533" Ref="C21"  Part="1" 
F 0 "C21" H 3913 7750 50  0000 L CNN
F 1 "100n" H 3913 7650 50  0000 L CNN
F 2 "IPC7351-Nominal:CAPC1005X55" H 3800 7700 50  0001 C CNN
F 3 "" H 3790 7675 60  0000 C CNN
F 4 "CAP MLCC 100n ≥X5R 10V 20% [0402]" H 4600 8250 60  0001 C CNN "BOM"
	1    3800 7700
	1    0    0    -1  
$EndComp
$Comp
L R-0402 R?
U 1 1 55FD08B4
P 7100 2600
AR Path="/55CDE77D/55FD08B4" Ref="R?"  Part="1" 
AR Path="/55C7FF09/55FD08B4" Ref="R32"  Part="1" 
F 0 "R32" H 7037 2550 50  0000 R CNN
F 1 "348" H 7037 2650 50  0000 R CNN
F 2 "IPC7351-Nominal:RESC1005X40" H 7100 2600 50  0001 C CNN
F 3 "" H 7100 2650 60  0000 C CNN
F 4 "RES SMD 348 1% [0402]" H 7850 3150 60  0001 C CNN "BOM"
	1    7100 2600
	-1   0    0    1   
$EndComp
$Comp
L R-0402 R30
U 1 1 55FD33B7
P 6450 2100
F 0 "R30" H 6387 2050 50  0000 R CNN
F 1 "22k" H 6387 2150 50  0000 R CNN
F 2 "IPC7351-Nominal:RESC1005X40" H 6450 2100 50  0001 C CNN
F 3 "" H 6450 2150 60  0000 C CNN
F 4 "RES SMD 22k 1% [0402]" H 7200 2650 60  0001 C CNN "BOM"
	1    6450 2100
	-1   0    0    1   
$EndComp
$Comp
L PMSS3904 Q11
U 1 1 55FD49BB
P 7100 1950
F 0 "Q11" V 7316 1950 50  0000 C CNN
F 1 "PMSS3904" V 7216 1950 50  0000 C CNN
F 2 "smd-semi:SC-70" H 7100 1950 50  0001 C CNN
F 3 "" H 7100 1950 60  0000 C CNN
F 4 "NPN NXP PMSS3904" H 7900 2500 60  0001 C CNN "BOM"
	1    7100 1950
	0    -1   -1   0   
$EndComp
$Comp
L R-0402 R31
U 1 1 55FD71A4
P 6750 1550
F 0 "R31" V 6838 1550 50  0000 C CNN
F 1 "2k" V 6938 1550 50  0000 C CNN
F 2 "IPC7351-Nominal:RESC1005X40" H 6750 1550 50  0001 C CNN
F 3 "" H 6750 1600 60  0000 C CNN
F 4 "RES SMD 2k 1% [0402]" H 7500 2100 60  0001 C CNN "BOM"
	1    6750 1550
	0    1    1    0   
$EndComp
$Comp
L R-0402 R33
U 1 1 55FD844B
P 7600 1900
F 0 "R33" V 7412 1900 50  0000 C CNN
F 1 "2k" V 7512 1900 50  0000 C CNN
F 2 "IPC7351-Nominal:RESC1005X40" H 7600 1900 50  0001 C CNN
F 3 "" H 7600 1950 60  0000 C CNN
F 4 "RES SMD 2k 1% [0402]" H 8350 2450 60  0001 C CNN "BOM"
	1    7600 1900
	0    1    1    0   
$EndComp
$Comp
L C-0402 C?
U 1 1 55FDA984
P 2700 2000
AR Path="/55CDE77D/55FDA984" Ref="C?"  Part="1" 
AR Path="/55C7FF09/55FDA984" Ref="C19"  Part="1" 
F 0 "C19" H 2813 2050 50  0000 L CNN
F 1 "100n" H 2813 1950 50  0000 L CNN
F 2 "IPC7351-Nominal:CAPC1005X55" H 2700 2000 50  0001 C CNN
F 3 "" H 2690 1975 60  0000 C CNN
F 4 "CAP MLCC 100n ≥X5R 10V 20% [0402]" H 3500 2550 60  0001 C CNN "BOM"
	1    2700 2000
	1    0    0    -1  
$EndComp
$Comp
L R-0402 R24
U 1 1 55FDC533
P 4800 1700
F 0 "R24" H 4737 1650 50  0000 R CNN
F 1 "22k" H 4737 1750 50  0000 R CNN
F 2 "IPC7351-Nominal:RESC1005X40" H 4800 1700 50  0001 C CNN
F 3 "" H 4800 1750 60  0000 C CNN
F 4 "RES SMD 22k 1% [0402]" H 5550 2250 60  0001 C CNN "BOM"
	1    4800 1700
	-1   0    0    1   
$EndComp
$Comp
L R-0402 R17
U 1 1 55FDDBA5
P 2500 1800
F 0 "R17" V 2312 1800 50  0000 C CNN
F 1 "2k" V 2412 1800 50  0000 C CNN
F 2 "IPC7351-Nominal:RESC1005X40" H 2500 1800 50  0001 C CNN
F 3 "" H 2500 1850 60  0000 C CNN
F 4 "RES SMD 2k 1% [0402]" H 3250 2350 60  0001 C CNN "BOM"
	1    2500 1800
	0    1    1    0   
$EndComp
$Comp
L R-0402 R36
U 1 1 55FE2F95
P 8650 1500
F 0 "R36" H 8587 1450 50  0000 R CNN
F 1 "2k" H 8587 1550 50  0000 R CNN
F 2 "IPC7351-Nominal:RESC1005X40" H 8650 1500 50  0001 C CNN
F 3 "" H 8650 1550 60  0000 C CNN
F 4 "RES SMD 2k 1% [0402]" H 9400 2050 60  0001 C CNN "BOM"
	1    8650 1500
	-1   0    0    1   
$EndComp
$Comp
L R-0402 R?
U 1 1 55FE383B
P 8650 1900
AR Path="/55CDE77D/55FE383B" Ref="R?"  Part="1" 
AR Path="/55C7FF09/55FE383B" Ref="R37"  Part="1" 
F 0 "R37" H 8587 1850 50  0000 R CNN
F 1 "348" H 8587 1950 50  0000 R CNN
F 2 "IPC7351-Nominal:RESC1005X40" H 8650 1900 50  0001 C CNN
F 3 "" H 8650 1950 60  0000 C CNN
F 4 "RES SMD 348 1% [0402]" H 9400 2450 60  0001 C CNN "BOM"
	1    8650 1900
	-1   0    0    1   
$EndComp
$Comp
L R-0402 R38
U 1 1 55FE480A
P 9750 1650
F 0 "R38" H 9687 1600 50  0000 R CNN
F 1 "470k" H 9687 1700 50  0000 R CNN
F 2 "IPC7351-Nominal:RESC1005X40" H 9750 1650 50  0001 C CNN
F 3 "" H 9750 1700 60  0000 C CNN
F 4 "RES SMD 470k 1% [0402]" H 10500 2200 60  0001 C CNN "BOM"
	1    9750 1650
	-1   0    0    1   
$EndComp
$Comp
L C-0402 C30
U 1 1 55FE69D0
P 8350 6500
F 0 "C30" H 8237 6450 50  0000 R CNN
F 1 "22n" H 8237 6550 50  0000 R CNN
F 2 "IPC7351-Nominal:CAPC1005X55" H 8350 6500 50  0001 C CNN
F 3 "" H 8340 6475 60  0000 C CNN
F 4 "CAP MLCC 22n ≥X5R 50V 10% [0402]" H 9150 7050 60  0001 C CNN "BOM"
	1    8350 6500
	-1   0    0    1   
$EndComp
$Comp
L C-0402 C29
U 1 1 55FE86E1
P 8350 4800
F 0 "C29" H 8237 4750 50  0000 R CNN
F 1 "22n" H 8237 4850 50  0000 R CNN
F 2 "IPC7351-Nominal:CAPC1005X55" H 8350 4800 50  0001 C CNN
F 3 "" H 8340 4775 60  0000 C CNN
F 4 "CAP MLCC 22n ≥X5R 50V 10% [0402]" H 9150 5350 60  0001 C CNN "BOM"
	1    8350 4800
	-1   0    0    1   
$EndComp
$Comp
L R-0402 R35
U 1 1 55FE95C0
P 8350 5950
F 0 "R35" H 8287 5900 50  0000 R CNN
F 1 "470k" H 8287 6000 50  0000 R CNN
F 2 "IPC7351-Nominal:RESC1005X40" H 8350 5950 50  0001 C CNN
F 3 "" H 8350 6000 60  0000 C CNN
F 4 "RES SMD 470k 1% [0402]" H 9100 6500 60  0001 C CNN "BOM"
	1    8350 5950
	-1   0    0    1   
$EndComp
$Comp
L R-0402 R34
U 1 1 55FEAB8D
P 8350 4300
F 0 "R34" H 8287 4250 50  0000 R CNN
F 1 "470k" H 8287 4350 50  0000 R CNN
F 2 "IPC7351-Nominal:RESC1005X40" H 8350 4300 50  0001 C CNN
F 3 "" H 8350 4350 60  0000 C CNN
F 4 "RES SMD 470k 1% [0402]" H 9100 4850 60  0001 C CNN "BOM"
	1    8350 4300
	-1   0    0    1   
$EndComp
$Comp
L +3.3A #PWR049
U 1 1 56024D5E
P 900 6900
F 0 "#PWR049" H 900 6950 30  0001 C CNN
F 1 "+3.3A" H 900 7013 50  0000 C CNN
F 2 "" H 900 6900 60  0000 C CNN
F 3 "" H 900 6900 60  0000 C CNN
	1    900  6900
	1    0    0    -1  
$EndComp
$Comp
L +3.3A #PWR050
U 1 1 56024E84
P 3800 6800
F 0 "#PWR050" H 3800 6850 30  0001 C CNN
F 1 "+3.3A" H 3800 6913 50  0000 C CNN
F 2 "" H 3800 6800 60  0000 C CNN
F 3 "" H 3800 6800 60  0000 C CNN
	1    3800 6800
	1    0    0    -1  
$EndComp
$Comp
L R-0402 R23
U 1 1 5602572F
P 4800 1300
F 0 "R23" H 4737 1250 50  0000 R CNN
F 1 "22k" H 4737 1350 50  0000 R CNN
F 2 "IPC7351-Nominal:RESC1005X40" H 4800 1300 50  0001 C CNN
F 3 "" H 4800 1350 60  0000 C CNN
F 4 "RES SMD 22k 1% [0402]" H 5550 1850 60  0001 C CNN "BOM"
	1    4800 1300
	-1   0    0    1   
$EndComp
Wire Wire Line
	5500 4700 5500 4500
Wire Wire Line
	5500 4500 5600 4500
Text HLabel 1100 4600 0    50   Input ~ 0
FORCE_SAT_L
Wire Wire Line
	1100 4600 4700 4600
Wire Wire Line
	4700 4600 4700 4300
Connection ~ 5500 4300
Text Notes -1750 4650 0    50   ~ 0
FORCE_SAT_L does not exist on the PCB;\nit was added as a wire to the prototype.
Wire Wire Line
	6450 1800 6450 2000
Wire Wire Line
	6450 1550 6450 1100
$Comp
L V+ #PWR?
U 1 1 56438D50
P 6450 1800
F 0 "#PWR?" H 6450 1850 30  0001 C CNN
F 1 "V+" H 6450 1913 50  0000 C CNN
F 2 "" H 6450 1800 60  0000 C CNN
F 3 "" H 6450 1800 60  0000 C CNN
	1    6450 1800
	1    0    0    -1  
$EndComp
Wire Notes Line
	5800 1600 6550 1600
Text Notes 5800 1600 0    50   ~ 0
Circuit change\nmade in proto
$EndSCHEMATC
